(footprint "Pico" (version 20221018) (generator pcbnew)
  (layer "F.Cu")
  (attr through_hole)
  (fp_text reference "REF**" (at 0 -0.5 unlocked) (layer "F.SilkS")
      (effects (font (size 1 1) (thickness 0.1)))
    (tstamp 8af136c4-f95e-4069-86eb-052042e9b330)
  )
  (fp_text value "Pico" (at 0 1 unlocked) (layer "F.Fab")
      (effects (font (size 1 1) (thickness 0.15)))
    (tstamp 9e5f50e9-f97d-4ca9-9bb0-91174997f0f3)
  )
  (fp_text user "${REFERENCE}" (at 0 2.5 unlocked) (layer "F.Fab")
      (effects (font (size 1 1) (thickness 0.15)))
    (tstamp 97c6c488-0468-47a6-b9a8-fd3bb5e15077)
  )
  (fp_line (start -7.62 -25.4) (end -2.54 -25.4)
    (stroke (width 0.1) (type default)) (layer "F.SilkS") (tstamp e3be8d97-11f2-4b88-82fc-9a45ec6f0d1a))
  (fp_line (start -7.62 25.4) (end -7.62 -25.4)
    (stroke (width 0.1) (type default)) (layer "F.SilkS") (tstamp 03b5779a-0880-4e96-b959-eb959e696c02))
  (fp_line (start 2.54 -25.4) (end 7.62 -25.4)
    (stroke (width 0.1) (type default)) (layer "F.SilkS") (tstamp 8eb3b04d-af63-4ca5-9bf1-76571b0b065a))
  (fp_line (start 7.62 -25.4) (end 7.62 25.4)
    (stroke (width 0.1) (type default)) (layer "F.SilkS") (tstamp 48ca0c33-5e07-45fd-a929-1d329f0f27a9))
  (fp_line (start 7.62 25.4) (end -7.62 25.4)
    (stroke (width 0.1) (type default)) (layer "F.SilkS") (tstamp ef2ca94a-d2f7-477d-b22a-d5f2868274d8))
  (fp_arc (start 2.54 -25.4) (mid 0 -22.86) (end -2.54 -25.4)
    (stroke (width 0.1) (type default)) (layer "F.SilkS") (tstamp 8a5b1e73-c7af-4177-842d-75fc00bbb336))
  (fp_rect (start -10.6 -25.6) (end 10.6 25.6)
    (stroke (width 0.05) (type default)) (fill none) (layer "F.CrtYd") (tstamp 374f00de-678a-4d9d-bb33-b1c3ca7040f9))
  (pad "1" thru_hole circle (at -8.89 -24.13) (size 1.6 1.6) (drill 1) (layers "*.Cu" "*.Mask") (tstamp b39778ed-bc20-4422-b5dd-f8a8fcde231c))
  (pad "2" thru_hole circle (at -8.89 -21.59) (size 1.6 1.6) (drill 1) (layers "*.Cu" "*.Mask") (tstamp a4c22589-f493-4868-b961-52514f7957ce))
  (pad "3" thru_hole rect (at -8.89 -19.05) (size 1.6 1.6) (drill 1) (layers "*.Cu" "*.Mask") (tstamp a8ebca76-63c4-402b-83dd-1b0ebabce202))
  (pad "4" thru_hole circle (at -8.89 -16.51) (size 1.6 1.6) (drill 1) (layers "*.Cu" "*.Mask") (tstamp 911f53cd-6afd-4652-96a1-3b104bdd098e))
  (pad "5" thru_hole circle (at -8.89 -13.97) (size 1.6 1.6) (drill 1) (layers "*.Cu" "*.Mask") (tstamp 7b175293-4d4e-41f8-b2a2-ed908c4fc931))
  (pad "6" thru_hole circle (at -8.89 -11.43) (size 1.6 1.6) (drill 1) (layers "*.Cu" "*.Mask") (tstamp 31ce5fab-d4fa-41df-8741-c949ef6426e2))
  (pad "7" thru_hole circle (at -8.89 -8.89) (size 1.6 1.6) (drill 1) (layers "*.Cu" "*.Mask") (tstamp 689ffb37-2287-4744-b0ed-658540ee2f3c))
  (pad "8" thru_hole rect (at -8.89 -6.35) (size 1.6 1.6) (drill 1) (layers "*.Cu" "*.Mask") (tstamp a82a16bd-b57c-4fe6-b11e-efb172d40a2a))
  (pad "9" thru_hole circle (at -8.89 -3.81) (size 1.6 1.6) (drill 1) (layers "*.Cu" "*.Mask") (tstamp 096da8ac-a515-4085-baa4-b289e6d0450a))
  (pad "10" thru_hole circle (at -8.89 -1.27) (size 1.6 1.6) (drill 1) (layers "*.Cu" "*.Mask") (tstamp dfec12b9-75b8-489f-93a3-0e2a45ce7555))
  (pad "11" thru_hole circle (at -8.89 1.27) (size 1.6 1.6) (drill 1) (layers "*.Cu" "*.Mask") (tstamp 006d434b-cc8d-40df-b791-93566e3de7d5))
  (pad "12" thru_hole circle (at -8.89 3.81) (size 1.6 1.6) (drill 1) (layers "*.Cu" "*.Mask") (tstamp 4abe7f27-4033-48f3-b6ca-252115522045))
  (pad "13" thru_hole rect (at -8.89 6.35) (size 1.6 1.6) (drill 1) (layers "*.Cu" "*.Mask") (tstamp 4ea47dc2-8871-4b70-ba70-81eb8dcd0106))
  (pad "14" thru_hole circle (at -8.89 8.89) (size 1.6 1.6) (drill 1) (layers "*.Cu" "*.Mask") (tstamp ef740e95-3d9c-4811-a2b7-da25effb7baf))
  (pad "15" thru_hole circle (at -8.89 11.43) (size 1.6 1.6) (drill 1) (layers "*.Cu" "*.Mask") (tstamp 15244ef3-5989-4704-a201-c69f20d18b9b))
  (pad "16" thru_hole circle (at -8.89 13.97) (size 1.6 1.6) (drill 1) (layers "*.Cu" "*.Mask") (tstamp b3a3fe37-c31a-4117-9a03-477877d2ea77))
  (pad "17" thru_hole circle (at -8.89 16.51) (size 1.6 1.6) (drill 1) (layers "*.Cu" "*.Mask") (tstamp a80f8360-8ba5-4229-afcc-0b9aed7ee5e1))
  (pad "18" thru_hole rect (at -8.89 19.05) (size 1.6 1.6) (drill 1) (layers "*.Cu" "*.Mask") (tstamp c4820285-69a1-4664-9e04-b0a41ee3c426))
  (pad "19" thru_hole circle (at -8.89 21.59) (size 1.6 1.6) (drill 1) (layers "*.Cu" "*.Mask") (tstamp a7643991-662f-415e-a4b9-8217a21feea7))
  (pad "20" thru_hole circle (at -8.89 24.13) (size 1.6 1.6) (drill 1) (layers "*.Cu" "*.Mask") (tstamp 084aec64-fb63-46b6-8c2e-20d8f7df643f))
  (pad "21" thru_hole circle (at 8.89 24.13) (size 1.6 1.6) (drill 1) (layers "*.Cu" "*.Mask") (tstamp cee3984a-1292-4ea7-837c-65b6e70b52f3))
  (pad "22" thru_hole circle (at 8.89 21.59) (size 1.6 1.6) (drill 1) (layers "*.Cu" "*.Mask") (tstamp df97ef29-33b1-4793-a81b-5270344b8539))
  (pad "23" thru_hole rect (at 8.89 19.05) (size 1.6 1.6) (drill 1) (layers "*.Cu" "*.Mask") (tstamp 94d7d26b-a918-4478-b916-c55182c1710c))
  (pad "24" thru_hole circle (at 8.89 16.51) (size 1.6 1.6) (drill 1) (layers "*.Cu" "*.Mask") (tstamp 935467c4-6001-4ac9-bdcf-cde3f986e1e1))
  (pad "25" thru_hole circle (at 8.89 13.97) (size 1.6 1.6) (drill 1) (layers "*.Cu" "*.Mask") (tstamp 632e26e2-c010-4149-813a-7f4da717bb2c))
  (pad "26" thru_hole circle (at 8.89 11.43) (size 1.6 1.6) (drill 1) (layers "*.Cu" "*.Mask") (tstamp 40db28ef-c05d-460e-9e65-7a64ab90af12))
  (pad "27" thru_hole circle (at 8.89 8.89) (size 1.6 1.6) (drill 1) (layers "*.Cu" "*.Mask") (tstamp d1bebf06-ec06-49e2-8523-f8d774aa3e19))
  (pad "28" thru_hole rect (at 8.89 6.35) (size 1.6 1.6) (drill 1) (layers "*.Cu" "*.Mask") (tstamp ebdfdef7-0015-4257-993f-b387ba3ea0d2))
  (pad "29" thru_hole circle (at 8.89 3.81) (size 1.6 1.6) (drill 1) (layers "*.Cu" "*.Mask") (tstamp 2a857255-3bce-4c69-9dfd-6a1f4fdcbca8))
  (pad "30" thru_hole circle (at 8.89 1.27) (size 1.6 1.6) (drill 1) (layers "*.Cu" "*.Mask") (tstamp 0bafa5ed-852e-42b6-939f-fbb90d213a3d))
  (pad "31" thru_hole circle (at 8.89 -1.27) (size 1.6 1.6) (drill 1) (layers "*.Cu" "*.Mask") (tstamp 9c8dd547-1d81-41e4-a94f-41e0af56ec7e))
  (pad "32" thru_hole circle (at 8.89 -3.81) (size 1.6 1.6) (drill 1) (layers "*.Cu" "*.Mask") (tstamp aeaa9b53-2da4-4c61-ba05-5ea1a43a9181))
  (pad "33" thru_hole rect (at 8.89 -6.35) (size 1.6 1.6) (drill 1) (layers "*.Cu" "*.Mask") (tstamp 2802ff7a-6379-45a7-bc01-d70c1b644222))
  (pad "34" thru_hole circle (at 8.89 -8.89) (size 1.6 1.6) (drill 1) (layers "*.Cu" "*.Mask") (tstamp cf4624e9-3caf-4b67-a184-d121dd53989a))
  (pad "35" thru_hole circle (at 8.89 -11.43) (size 1.6 1.6) (drill 1) (layers "*.Cu" "*.Mask") (tstamp 39629abd-abcc-4ae3-bfd5-371638e4a0b3))
  (pad "36" thru_hole roundrect (at 8.89 -13.97) (size 1.6 1.6) (drill 1) (layers "*.Cu" "*.Mask") (roundrect_rratio 0.25) (tstamp 9e130297-066b-4387-8f7c-b13ed051183b))
  (pad "37" thru_hole roundrect (at 8.89 -16.51) (size 1.6 1.6) (drill 1) (layers "*.Cu" "*.Mask") (roundrect_rratio 0.25) (tstamp 655f8ac6-931c-405d-8544-f712dddae5cc))
  (pad "38" thru_hole rect (at 8.89 -19.05) (size 1.6 1.6) (drill 1) (layers "*.Cu" "*.Mask") (tstamp 560affbc-9cc1-45f3-985d-4c2d0a79fe51))
  (pad "39" thru_hole roundrect (at 8.89 -21.59) (size 1.6 1.6) (drill 1) (layers "*.Cu" "*.Mask") (roundrect_rratio 0.25) (tstamp a931d5f6-31d9-4872-acfd-74adae01274d))
  (pad "40" thru_hole roundrect (at 8.89 -24.13) (size 1.6 1.6) (drill 1) (layers "*.Cu" "*.Mask") (roundrect_rratio 0.25) (tstamp 01b565e3-2021-4b75-917c-c610b91375f3))
)
